{
  "data": [
    {
      "id": "5274",
      "slug": "5274-ontario-power-generation-managing-director-portfolio-strategy-and-investment-risk-hybrid",
      "jobTitle": "Managing Director, Portfolio Strategy and Investment Risk (Hybrid)",
      "company": "Ontario Power Generation",
      "companyDescription": "As Ontario’s largest clean electricity generator, OPG produces about half of the province’s power using our diverse portfolio of publically-owned generating assets. In 2014, OPG burned its last piece of coal to make electricity. It was North America’s largest climate change action to date. ",
      "location": "ON, CA, M5G 1X6",
      "applyLink": "https://jobs.opg.com/job/Managing-Director%2C-Portfolio-Strategy-and-Investment-Risk-%28Hybrid%29-ON-M5G-1X6/559497217/",
      "tags": [],
      "timeSince": "Today",
      "isBookmarked": false,
      "isActive": true,
      "companyLogoUrl": "/rails/active_storage/representations/redirect/eyJfcmFpbHMiOnsibWVzc2FnZSI6IkJBaHBJdz09IiwiZXhwIjpudWxsLCJwdXIiOiJibG9iX2lkIn19--5c21bd1bffa950b3c213c35ed1d1284c6ab41e3a/eyJfcmFpbHMiOnsibWVzc2FnZSI6IkJBaDdCem9MWm05eWJXRjBTU0lKYW5CbFp3WTZCa1ZVT2hSeVpYTnBlbVZmZEc5ZmJHbHRhWFJiQjJrQnlHa0J5QT09IiwiZXhwIjpudWxsLCJwdXIiOiJ2YXJpYXRpb24ifX0=--b2bf4804ab25bfb48f91092b435f839cee7cfed2/Ontario%20Power%20Generation"
    },
    {
      "id": "5273",
      "slug": "5273-ontario-power-generation-manager-pay-services-hybrid",
      "jobTitle": "Manager, Pay Services (Hybrid)",
      "company": "Ontario Power Generation",
      "companyDescription": "As Ontario’s largest clean electricity generator, OPG produces about half of the province’s power using our diverse portfolio of publically-owned generating assets. In 2014, OPG burned its last piece of coal to make electricity. It was North America’s largest climate change action to date. ",
      "location": "Toronto, ON, CA, M5G 1X6",
      "applyLink": "https://jobs.opg.com/job/Toronto-Manager%2C-Pay-Services-%28Hybrid%29-ON-M5G-1X6/559486017/",
      "tags": [],
      "timeSince": "Today",
      "isBookmarked": false,
      "isActive": true,
      "companyLogoUrl": "/rails/active_storage/representations/redirect/eyJfcmFpbHMiOnsibWVzc2FnZSI6IkJBaHBJdz09IiwiZXhwIjpudWxsLCJwdXIiOiJibG9iX2lkIn19--5c21bd1bffa950b3c213c35ed1d1284c6ab41e3a/eyJfcmFpbHMiOnsibWVzc2FnZSI6IkJBaDdCem9MWm05eWJXRjBTU0lKYW5CbFp3WTZCa1ZVT2hSeVpYTnBlbVZmZEc5ZmJHbHRhWFJiQjJrQnlHa0J5QT09IiwiZXhwIjpudWxsLCJwdXIiOiJ2YXJpYXRpb24ifX0=--b2bf4804ab25bfb48f91092b435f839cee7cfed2/Ontario%20Power%20Generation"
    },
    {
      "id": "5272",
      "slug": "5272-hydro-quebec-technicien-ne-telecommunications-maintenance",
      "jobTitle": "Technicien(ne) Télécommunications Maintenance",
      "company": "Hydro-Québec",
      "companyDescription": "Hydro-Québec is a public utility that manages the generation, transmission and distribution of electricity in the Canadian province of Québec.",
      "location": "Chibougamau, QC, CA",
      "applyLink": "https://emploi.hydroquebec.com/job/Chibougamau-Technicien%28ne%29-T%C3%A9l%C3%A9communications-Maintenance-QC/559463217/",
      "tags": [],
      "timeSince": "Today",
      "isBookmarked": false,
      "isActive": true,
      "companyLogoUrl": "/rails/active_storage/representations/redirect/eyJfcmFpbHMiOnsibWVzc2FnZSI6IkJBaHBHUT09IiwiZXhwIjpudWxsLCJwdXIiOiJibG9iX2lkIn19--ad684b7acf6c225719e028c4ee236b2869da0c22/eyJfcmFpbHMiOnsibWVzc2FnZSI6IkJBaDdCem9MWm05eWJXRjBTU0lJY0c1bkJqb0dSVlE2RkhKbGMybDZaVjkwYjE5c2FXMXBkRnNIYVFISWFRSEkiLCJleHAiOm51bGwsInB1ciI6InZhcmlhdGlvbiJ9fQ==--7f71ef0f223149a0637966faf932effcf328e851/Hydro-Qu%C3%A9bec"
    },
    {
      "id": "5271",
      "slug": "5271-hydro-quebec-conseiller-ere-pratiques-d-affaires-materiel-ii",
      "jobTitle": "Conseiller(ère) Pratiques d'affaires Matériel II",
      "company": "Hydro-Québec",
      "companyDescription": "Hydro-Québec is a public utility that manages the generation, transmission and distribution of electricity in the Canadian province of Québec.",
      "location": "Saint-Hyacinthe, QC, CA",
      "applyLink": "https://emploi.hydroquebec.com/job/Saint-Hyacinthe-Conseiller%28%C3%A8re%29-Pratiques-d\u0026apos;affaires-Mat%C3%A9riel-II-QC/559460917/",
      "tags": [],
      "timeSince": "Today",
      "isBookmarked": false,
      "isActive": true,
      "companyLogoUrl": "/rails/active_storage/representations/redirect/eyJfcmFpbHMiOnsibWVzc2FnZSI6IkJBaHBHUT09IiwiZXhwIjpudWxsLCJwdXIiOiJibG9iX2lkIn19--ad684b7acf6c225719e028c4ee236b2869da0c22/eyJfcmFpbHMiOnsibWVzc2FnZSI6IkJBaDdCem9MWm05eWJXRjBTU0lJY0c1bkJqb0dSVlE2RkhKbGMybDZaVjkwYjE5c2FXMXBkRnNIYVFISWFRSEkiLCJleHAiOm51bGwsInB1ciI6InZhcmlhdGlvbiJ9fQ==--7f71ef0f223149a0637966faf932effcf328e851/Hydro-Qu%C3%A9bec"
    },
    {
      "id": "5270",
      "slug": "5270-hydro-quebec-verificateur-trice-reparateur-trice-outillage",
      "jobTitle": "Vérificateur(trice) réparateur(trice) Outillage",
      "company": "Hydro-Québec",
      "companyDescription": "Hydro-Québec is a public utility that manages the generation, transmission and distribution of electricity in the Canadian province of Québec.",
      "location": "Montréal, QC, CA",
      "applyLink": "https://emploi.hydroquebec.com/job/Montr%C3%A9al-V%C3%A9rificateur%28trice%29-r%C3%A9parateur%28trice%29-Outillage-QC/559461917/",
      "tags": [],
      "timeSince": "Today",
      "isBookmarked": false,
      "isActive": true,
      "companyLogoUrl": "/rails/active_storage/representations/redirect/eyJfcmFpbHMiOnsibWVzc2FnZSI6IkJBaHBHUT09IiwiZXhwIjpudWxsLCJwdXIiOiJibG9iX2lkIn19--ad684b7acf6c225719e028c4ee236b2869da0c22/eyJfcmFpbHMiOnsibWVzc2FnZSI6IkJBaDdCem9MWm05eWJXRjBTU0lJY0c1bkJqb0dSVlE2RkhKbGMybDZaVjkwYjE5c2FXMXBkRnNIYVFISWFRSEkiLCJleHAiOm51bGwsInB1ciI6InZhcmlhdGlvbiJ9fQ==--7f71ef0f223149a0637966faf932effcf328e851/Hydro-Qu%C3%A9bec"
    },
    {
      "id": "5269",
      "slug": "5269-fortis-inc-business-performance-finance-analyst",
      "jobTitle": "Business Performance \u0026 Finance Analyst",
      "company": "Fortis Inc",
      "companyDescription": "Fortis Inc. operates renewable natural gas, electric vehicle charging stations. Has highlighted renewable energy as one of its key growth areas.",
      "location": "Burnaby, BC, CA",
      "applyLink": "https://careers.fortisbc.com/job/Burnaby-Business-Performance-\u0026-Finance-Analyst-BC/559483617/",
      "tags": [],
      "timeSince": "Today",
      "isBookmarked": false,
      "isActive": true,
      "companyLogoUrl": "/rails/active_storage/representations/redirect/eyJfcmFpbHMiOnsibWVzc2FnZSI6IkJBaHBGdz09IiwiZXhwIjpudWxsLCJwdXIiOiJibG9iX2lkIn19--7b30b3b492bc128f7e52f970416a99703ae5468e/eyJfcmFpbHMiOnsibWVzc2FnZSI6IkJBaDdCem9MWm05eWJXRjBTU0lJY0c1bkJqb0dSVlE2RkhKbGMybDZaVjkwYjE5c2FXMXBkRnNIYVFISWFRSEkiLCJleHAiOm51bGwsInB1ciI6InZhcmlhdGlvbiJ9fQ==--7f71ef0f223149a0637966faf932effcf328e851/Fortis%20Inc"
    },
    {
      "id": "5268",
      "slug": "5268-spark-power-outside-sales-representative",
      "jobTitle": "Outside Sales Representative",
      "company": "Spark Power",
      "companyDescription": "Spark Power is a leading independent provider of end-to-end electrical services, operations and maintenance services, and energy sustainability solutions to the industrial, commercial, utility, and renewable asset markets in North America.",
      "location": "Houston, TX",
      "applyLink": "https://spark-power.breezy.hr/p/779997b7b0a101-outside-sales-representative",
      "tags": ["Wind", "Solar"],
      "timeSince": "1 day ago",
      "isBookmarked": false,
      "isActive": true,
      "companyLogoUrl": "/rails/active_storage/representations/redirect/eyJfcmFpbHMiOnsibWVzc2FnZSI6IkJBaHBKdz09IiwiZXhwIjpudWxsLCJwdXIiOiJibG9iX2lkIn19--5e58f63f95e626f995366d6cb0ba5831853f2c9e/eyJfcmFpbHMiOnsibWVzc2FnZSI6IkJBaDdCem9MWm05eWJXRjBTU0lKYW5CbFp3WTZCa1ZVT2hSeVpYTnBlbVZmZEc5ZmJHbHRhWFJiQjJrQnlHa0J5QT09IiwiZXhwIjpudWxsLCJwdXIiOiJ2YXJpYXRpb24ifX0=--b2bf4804ab25bfb48f91092b435f839cee7cfed2/Spark%20Power"
    },
    {
      "id": "5267",
      "slug": "5267-spark-power-electrical-project-manager",
      "jobTitle": "Electrical Project Manager",
      "company": "Spark Power",
      "companyDescription": "Spark Power is a leading independent provider of end-to-end electrical services, operations and maintenance services, and energy sustainability solutions to the industrial, commercial, utility, and renewable asset markets in North America.",
      "location": "Bakersfield, CA",
      "applyLink": "https://spark-power.breezy.hr/p/8a4c0d007a9301-electrical-project-manager",
      "tags": ["Wind", "Solar"],
      "timeSince": "1 day ago",
      "isBookmarked": false,
      "isActive": true,
      "companyLogoUrl": "/rails/active_storage/representations/redirect/eyJfcmFpbHMiOnsibWVzc2FnZSI6IkJBaHBKdz09IiwiZXhwIjpudWxsLCJwdXIiOiJibG9iX2lkIn19--5e58f63f95e626f995366d6cb0ba5831853f2c9e/eyJfcmFpbHMiOnsibWVzc2FnZSI6IkJBaDdCem9MWm05eWJXRjBTU0lKYW5CbFp3WTZCa1ZVT2hSeVpYTnBlbVZmZEc5ZmJHbHRhWFJiQjJrQnlHa0J5QT09IiwiZXhwIjpudWxsLCJwdXIiOiJ2YXJpYXRpb24ifX0=--b2bf4804ab25bfb48f91092b435f839cee7cfed2/Spark%20Power"
    },
    {
      "id": "5266",
      "slug": "5266-ontario-power-generation-managing-director-public-markets-hybrid",
      "jobTitle": "Managing Director, Public Markets (Hybrid)",
      "company": "Ontario Power Generation",
      "companyDescription": "As Ontario’s largest clean electricity generator, OPG produces about half of the province’s power using our diverse portfolio of publically-owned generating assets. In 2014, OPG burned its last piece of coal to make electricity. It was North America’s largest climate change action to date. ",
      "location": "Toronto, ON, CA, M5G 1X6",
      "applyLink": "https://jobs.opg.com/job/Toronto-Managing-Director%2C-Public-Markets-ON-M5G-1X6/559440417/",
      "tags": [],
      "timeSince": "1 day ago",
      "isBookmarked": false,
      "isActive": true,
      "companyLogoUrl": "/rails/active_storage/representations/redirect/eyJfcmFpbHMiOnsibWVzc2FnZSI6IkJBaHBJdz09IiwiZXhwIjpudWxsLCJwdXIiOiJibG9iX2lkIn19--5c21bd1bffa950b3c213c35ed1d1284c6ab41e3a/eyJfcmFpbHMiOnsibWVzc2FnZSI6IkJBaDdCem9MWm05eWJXRjBTU0lKYW5CbFp3WTZCa1ZVT2hSeVpYTnBlbVZmZEc5ZmJHbHRhWFJiQjJrQnlHa0J5QT09IiwiZXhwIjpudWxsLCJwdXIiOiJ2YXJpYXRpb24ifX0=--b2bf4804ab25bfb48f91092b435f839cee7cfed2/Ontario%20Power%20Generation"
    },
    {
      "id": "5265",
      "slug": "5265-nextera-energy-resources-engineer-i-t-s",
      "jobTitle": "Engineer I - T/S",
      "company": "NextEra Energy Resources",
      "companyDescription": "NextEra Energy, Inc. (NYSE: NEE) is a leading clean energy company headquartered in Juno Beach, Florida. It also has significant operations in Canada.",
      "location": "Jupiter, FL, US, 33478                            +598 more…",
      "applyLink": "https://jobs.nexteraenergy.com/job/Jupiter-Engineer-I-TS-FL-33478/884028800/",
      "tags": ["Wind"],
      "timeSince": "1 day ago",
      "isBookmarked": false,
      "isActive": true,
      "companyLogoUrl": "/rails/active_storage/representations/redirect/eyJfcmFpbHMiOnsibWVzc2FnZSI6IkJBaHBJUT09IiwiZXhwIjpudWxsLCJwdXIiOiJibG9iX2lkIn19--b0dd7352efe1df1f2d30e5b14af99fb0860eb71c/eyJfcmFpbHMiOnsibWVzc2FnZSI6IkJBaDdCem9MWm05eWJXRjBTU0lJY0c1bkJqb0dSVlE2RkhKbGMybDZaVjkwYjE5c2FXMXBkRnNIYVFISWFRSEkiLCJleHAiOm51bGwsInB1ciI6InZhcmlhdGlvbiJ9fQ==--7f71ef0f223149a0637966faf932effcf328e851/NextEra%20Energy%20Resources"
    },
    {
      "id": "5264",
      "slug": "5264-nextera-energy-resources-wind-technician-iii-bornish-wind-plant-parkhill-ontario",
      "jobTitle": "Wind Technician III - Bornish Wind Plant - Parkhill, Ontario",
      "company": "NextEra Energy Resources",
      "companyDescription": "NextEra Energy, Inc. (NYSE: NEE) is a leading clean energy company headquartered in Juno Beach, Florida. It also has significant operations in Canada.",
      "location": "Lambton Shores, ON, CA, N0N 17J",
      "applyLink": "https://jobs.nexteraenergy.com/job/Lambton-Shores-Wind-Technician-III-Bornish-Wind-Plant-Parkhill%2C-Ontario-ON-N0N-17J/884129800/",
      "tags": ["Wind"],
      "timeSince": "1 day ago",
      "isBookmarked": false,
      "isActive": true,
      "companyLogoUrl": "/rails/active_storage/representations/redirect/eyJfcmFpbHMiOnsibWVzc2FnZSI6IkJBaHBJUT09IiwiZXhwIjpudWxsLCJwdXIiOiJibG9iX2lkIn19--b0dd7352efe1df1f2d30e5b14af99fb0860eb71c/eyJfcmFpbHMiOnsibWVzc2FnZSI6IkJBaDdCem9MWm05eWJXRjBTU0lJY0c1bkJqb0dSVlE2RkhKbGMybDZaVjkwYjE5c2FXMXBkRnNIYVFISWFRSEkiLCJleHAiOm51bGwsInB1ciI6InZhcmlhdGlvbiJ9fQ==--7f71ef0f223149a0637966faf932effcf328e851/NextEra%20Energy%20Resources"
    },
    {
      "id": "5263",
      "slug": "5263-kruger-energy-inc-relief-control-room-operator",
      "jobTitle": "Relief Control Room Operator",
      "company": "Kruger Energy Inc.",
      "companyDescription": "Developes hydroelectric, wind, energy storage and solar power facilities as well as biomass cogeneration plants.",
      "location": "Corner Brook, NL",
      "applyLink": "https://tre.tbe.taleo.net/tre01/ats/careers/requisition.jsp?org=KRUGER2\u0026cws=60\u0026rid=1515",
      "tags": ["Wind"],
      "timeSince": "1 day ago",
      "isBookmarked": false,
      "isActive": true,
      "companyLogoUrl": "/rails/active_storage/representations/redirect/eyJfcmFpbHMiOnsibWVzc2FnZSI6IkJBaHBBYTQ9IiwiZXhwIjpudWxsLCJwdXIiOiJibG9iX2lkIn19--0a268e9dd4554b69c6d3f97fb94d6813483ee79b/eyJfcmFpbHMiOnsibWVzc2FnZSI6IkJBaDdCem9MWm05eWJXRjBPZ2h3Ym1jNkZISmxjMmw2WlY5MGIxOXNhVzFwZEZzSGFRSElhUUhJIiwiZXhwIjpudWxsLCJwdXIiOiJ2YXJpYXRpb24ifX0=--8e409335b543dbcc04c61cb2bf0b1ae194c48526/kruger_logo.webp"
    },
    {
      "id": "5262",
      "slug": "5262-hydro-quebec-electricien-ne-appareillage",
      "jobTitle": "Électricien(ne) Appareillage",
      "company": "Hydro-Québec",
      "companyDescription": "Hydro-Québec is a public utility that manages the generation, transmission and distribution of electricity in the Canadian province of Québec.",
      "location": "Sainte-Eulalie, QC, CA",
      "applyLink": "https://emploi.hydroquebec.com/job/Sainte-Eulalie-%C3%89lectricien%28ne%29-Appareillage-QC/559441017/",
      "tags": [],
      "timeSince": "1 day ago",
      "isBookmarked": false,
      "isActive": true,
      "companyLogoUrl": "/rails/active_storage/representations/redirect/eyJfcmFpbHMiOnsibWVzc2FnZSI6IkJBaHBHUT09IiwiZXhwIjpudWxsLCJwdXIiOiJibG9iX2lkIn19--ad684b7acf6c225719e028c4ee236b2869da0c22/eyJfcmFpbHMiOnsibWVzc2FnZSI6IkJBaDdCem9MWm05eWJXRjBTU0lJY0c1bkJqb0dSVlE2RkhKbGMybDZaVjkwYjE5c2FXMXBkRnNIYVFISWFRSEkiLCJleHAiOm51bGwsInB1ciI6InZhcmlhdGlvbiJ9fQ==--7f71ef0f223149a0637966faf932effcf328e851/Hydro-Qu%C3%A9bec"
    },
    {
      "id": "5261",
      "slug": "5261-hydro-quebec-coordonnateur-trice-formation",
      "jobTitle": "Coordonnateur(trice) Formation",
      "company": "Hydro-Québec",
      "companyDescription": "Hydro-Québec is a public utility that manages the generation, transmission and distribution of electricity in the Canadian province of Québec.",
      "location": "Postes dans plusieurs régions, QC, CA",
      "applyLink": "https://emploi.hydroquebec.com/job/Postes-dans-plusieurs-r%C3%A9gions-Coordonnateur%28trice%29-Formation-QC/559443517/",
      "tags": [],
      "timeSince": "1 day ago",
      "isBookmarked": false,
      "isActive": true,
      "companyLogoUrl": "/rails/active_storage/representations/redirect/eyJfcmFpbHMiOnsibWVzc2FnZSI6IkJBaHBHUT09IiwiZXhwIjpudWxsLCJwdXIiOiJibG9iX2lkIn19--ad684b7acf6c225719e028c4ee236b2869da0c22/eyJfcmFpbHMiOnsibWVzc2FnZSI6IkJBaDdCem9MWm05eWJXRjBTU0lJY0c1bkJqb0dSVlE2RkhKbGMybDZaVjkwYjE5c2FXMXBkRnNIYVFISWFRSEkiLCJleHAiOm51bGwsInB1ciI6InZhcmlhdGlvbiJ9fQ==--7f71ef0f223149a0637966faf932effcf328e851/Hydro-Qu%C3%A9bec"
    },
    {
      "id": "5260",
      "slug": "5260-hydro-quebec-commis-chantier",
      "jobTitle": "Commis chantier",
      "company": "Hydro-Québec",
      "companyDescription": "Hydro-Québec is a public utility that manages the generation, transmission and distribution of electricity in the Canadian province of Québec.",
      "location": "Postes dans plusieurs régions, QC, CA",
      "applyLink": "https://emploi.hydroquebec.com/job/Postes-dans-plusieurs-r%C3%A9gions-Commis-chantier-QC/559433017/",
      "tags": [],
      "timeSince": "1 day ago",
      "isBookmarked": false,
      "isActive": true,
      "companyLogoUrl": "/rails/active_storage/representations/redirect/eyJfcmFpbHMiOnsibWVzc2FnZSI6IkJBaHBHUT09IiwiZXhwIjpudWxsLCJwdXIiOiJibG9iX2lkIn19--ad684b7acf6c225719e028c4ee236b2869da0c22/eyJfcmFpbHMiOnsibWVzc2FnZSI6IkJBaDdCem9MWm05eWJXRjBTU0lJY0c1bkJqb0dSVlE2RkhKbGMybDZaVjkwYjE5c2FXMXBkRnNIYVFISWFRSEkiLCJleHAiOm51bGwsInB1ciI6InZhcmlhdGlvbiJ9fQ==--7f71ef0f223149a0637966faf932effcf328e851/Hydro-Qu%C3%A9bec"
    },
    {
      "id": "5259",
      "slug": "5259-hydro-quebec-conseiller-ere-relations-autochtones-ii",
      "jobTitle": "Conseiller(ère) Relations autochtones II",
      "company": "Hydro-Québec",
      "companyDescription": "Hydro-Québec is a public utility that manages the generation, transmission and distribution of electricity in the Canadian province of Québec.",
      "location": "Postes dans plusieurs régions, QC, CA",
      "applyLink": "https://emploi.hydroquebec.com/job/Postes-dans-plusieurs-r%C3%A9gions-Conseiller%28%C3%A8re%29-Relations-autochtones-II-QC/559427917/",
      "tags": [],
      "timeSince": "1 day ago",
      "isBookmarked": false,
      "isActive": true,
      "companyLogoUrl": "/rails/active_storage/representations/redirect/eyJfcmFpbHMiOnsibWVzc2FnZSI6IkJBaHBHUT09IiwiZXhwIjpudWxsLCJwdXIiOiJibG9iX2lkIn19--ad684b7acf6c225719e028c4ee236b2869da0c22/eyJfcmFpbHMiOnsibWVzc2FnZSI6IkJBaDdCem9MWm05eWJXRjBTU0lJY0c1bkJqb0dSVlE2RkhKbGMybDZaVjkwYjE5c2FXMXBkRnNIYVFISWFRSEkiLCJleHAiOm51bGwsInB1ciI6InZhcmlhdGlvbiJ9fQ==--7f71ef0f223149a0637966faf932effcf328e851/Hydro-Qu%C3%A9bec"
    },
    {
      "id": "5258",
      "slug": "5258-hydro-quebec-commis-support-administration",
      "jobTitle": "Commis Support Administration",
      "company": "Hydro-Québec",
      "companyDescription": "Hydro-Québec is a public utility that manages the generation, transmission and distribution of electricity in the Canadian province of Québec.",
      "location": "Saint-Jérôme, QC, CA",
      "applyLink": "https://emploi.hydroquebec.com/job/Saint-J%C3%A9r%C3%B4me-Commis-Support-Administration-QC/559430617/",
      "tags": [],
      "timeSince": "1 day ago",
      "isBookmarked": false,
      "isActive": true,
      "companyLogoUrl": "/rails/active_storage/representations/redirect/eyJfcmFpbHMiOnsibWVzc2FnZSI6IkJBaHBHUT09IiwiZXhwIjpudWxsLCJwdXIiOiJibG9iX2lkIn19--ad684b7acf6c225719e028c4ee236b2869da0c22/eyJfcmFpbHMiOnsibWVzc2FnZSI6IkJBaDdCem9MWm05eWJXRjBTU0lJY0c1bkJqb0dSVlE2RkhKbGMybDZaVjkwYjE5c2FXMXBkRnNIYVFISWFRSEkiLCJleHAiOm51bGwsInB1ciI6InZhcmlhdGlvbiJ9fQ==--7f71ef0f223149a0637966faf932effcf328e851/Hydro-Qu%C3%A9bec"
    },
    {
      "id": "5257",
      "slug": "5257-hydro-quebec-operateur-trice-mobile-regional",
      "jobTitle": "Opérateur(trice) mobile régional",
      "company": "Hydro-Québec",
      "companyDescription": "Hydro-Québec is a public utility that manages the generation, transmission and distribution of electricity in the Canadian province of Québec.",
      "location": "Rouyn-Noranda, QC, CA",
      "applyLink": "https://emploi.hydroquebec.com/job/Rouyn-Noranda-Op%C3%A9rateur%28trice%29-mobile-r%C3%A9gional-QC/559438817/",
      "tags": [],
      "timeSince": "1 day ago",
      "isBookmarked": false,
      "isActive": true,
      "companyLogoUrl": "/rails/active_storage/representations/redirect/eyJfcmFpbHMiOnsibWVzc2FnZSI6IkJBaHBHUT09IiwiZXhwIjpudWxsLCJwdXIiOiJibG9iX2lkIn19--ad684b7acf6c225719e028c4ee236b2869da0c22/eyJfcmFpbHMiOnsibWVzc2FnZSI6IkJBaDdCem9MWm05eWJXRjBTU0lJY0c1bkJqb0dSVlE2RkhKbGMybDZaVjkwYjE5c2FXMXBkRnNIYVFISWFRSEkiLCJleHAiOm51bGwsInB1ciI6InZhcmlhdGlvbiJ9fQ==--7f71ef0f223149a0637966faf932effcf328e851/Hydro-Qu%C3%A9bec"
    },
    {
      "id": "5256",
      "slug": "5256-hydro-quebec-ingenieur-e-soutien-technique-mecanique",
      "jobTitle": "Ingénieur(e) Soutien technique Mécanique",
      "company": "Hydro-Québec",
      "companyDescription": "Hydro-Québec is a public utility that manages the generation, transmission and distribution of electricity in the Canadian province of Québec.",
      "location": "Trois-Rivières, QC, CA",
      "applyLink": "https://emploi.hydroquebec.com/job/Trois-Rivi%C3%A8res-Ing%C3%A9nieur%28e%29-Soutien-technique-M%C3%A9canique-QC/559422017/",
      "tags": [],
      "timeSince": "1 day ago",
      "isBookmarked": false,
      "isActive": true,
      "companyLogoUrl": "/rails/active_storage/representations/redirect/eyJfcmFpbHMiOnsibWVzc2FnZSI6IkJBaHBHUT09IiwiZXhwIjpudWxsLCJwdXIiOiJibG9iX2lkIn19--ad684b7acf6c225719e028c4ee236b2869da0c22/eyJfcmFpbHMiOnsibWVzc2FnZSI6IkJBaDdCem9MWm05eWJXRjBTU0lJY0c1bkJqb0dSVlE2RkhKbGMybDZaVjkwYjE5c2FXMXBkRnNIYVFISWFRSEkiLCJleHAiOm51bGwsInB1ciI6InZhcmlhdGlvbiJ9fQ==--7f71ef0f223149a0637966faf932effcf328e851/Hydro-Qu%C3%A9bec"
    },
    {
      "id": "5255",
      "slug": "5255-hydro-quebec-ingenieur-e-en-electricite",
      "jobTitle": "Ingénieur(e) en électricité",
      "company": "Hydro-Québec",
      "companyDescription": "Hydro-Québec is a public utility that manages the generation, transmission and distribution of electricity in the Canadian province of Québec.",
      "location": "Montréal, QC, CA",
      "applyLink": "https://emploi.hydroquebec.com/job/Montr%C3%A9al-Ing%C3%A9nieur%28e%29-en-%C3%A9lectricit%C3%A9-QC/559421817/",
      "tags": [],
      "timeSince": "1 day ago",
      "isBookmarked": false,
      "isActive": true,
      "companyLogoUrl": "/rails/active_storage/representations/redirect/eyJfcmFpbHMiOnsibWVzc2FnZSI6IkJBaHBHUT09IiwiZXhwIjpudWxsLCJwdXIiOiJibG9iX2lkIn19--ad684b7acf6c225719e028c4ee236b2869da0c22/eyJfcmFpbHMiOnsibWVzc2FnZSI6IkJBaDdCem9MWm05eWJXRjBTU0lJY0c1bkJqb0dSVlE2RkhKbGMybDZaVjkwYjE5c2FXMXBkRnNIYVFISWFRSEkiLCJleHAiOm51bGwsInB1ciI6InZhcmlhdGlvbiJ9fQ==--7f71ef0f223149a0637966faf932effcf328e851/Hydro-Qu%C3%A9bec"
    }
  ],
  "page": 1,
  "perPage": 20,
  "totalPages": 20,
  "totalItems": 394
}
