{
  "data": [
    {
      "id": "266",
      "slug": "266-renewable-energy-fundamentals",
      "title": "Renewable Energy Fundamentals",
      "host": "Oak Leaf",
      "description": "A two-day primer on renewable technologies, projects \u0026 developments.",
      "province": "Alberta",
      "location": "Calgary, AB",
      "tags": [
        "Geothermal",
        "Energy Storage",
        "Solar",
        "Wind",
        "Energy Efficiency"
      ],
      "eligibility": ["None"],
      "relatedCareers": [],
      "programFormat": "In Person Classes, Online",
      "certType": "Course / Workshop",
      "programLength": "2 days",
      "programCost": "$1,395.00 CAD",
      "courseLoad": "Part Time",
      "language": "English",
      "isBookmarked": false,
      "hostLogo": "/rails/active_storage/representations/redirect/eyJfcmFpbHMiOnsibWVzc2FnZSI6IkJBaHBBYUE9IiwiZXhwIjpudWxsLCJwdXIiOiJibG9iX2lkIn19--93118c83a4e572dcb93f4e06f9bb2affac127057/eyJfcmFpbHMiOnsibWVzc2FnZSI6IkJBaDdCem9MWm05eWJXRjBTU0lJWjJsbUJqb0dSVlE2RkhKbGMybDZaVjkwYjE5c2FXMXBkRnNIYVFISWFRSEkiLCJleHAiOm51bGwsInB1ciI6InZhcmlhdGlvbiJ9fQ==--b627c17dd7daaf5c6907d6395b4d5359e77f3ad3/OAK-logo-blue-green%20-%20J%20R.gif",
      "programWebsiteUrl": "https://www.oakleaftraining.com/courses/renewable-energy-fundamentals/"
    },
    {
      "id": "272",
      "slug": "272-power-engineering",
      "title": "Power Engineering",
      "host": "Northern Lights College",
      "description": "The 7 month Power Engineering Program takes learners through 4th Class Power Engineering.",
      "province": "British Columbia",
      "location": "Fort St John, BC",
      "tags": [
        "Geothermal",
        "Energy Storage",
        "Solar",
        "Wind",
        "Energy Efficiency"
      ],
      "eligibility": [
        "Some highschool education or advanced-Level Essential Skills for Trades or proof of Canadian Adult Achievement Test needed.",
        "Visit program website for detailed pre-requisites."
      ],
      "relatedCareers": [],
      "programFormat": "In Person Classes",
      "certType": "College Certificate",
      "programLength": "28 weeks",
      "programCost": "$7,800.00 CAD",
      "courseLoad": "Full Time",
      "language": "English",
      "isBookmarked": false,
      "hostLogo": "/rails/active_storage/representations/redirect/eyJfcmFpbHMiOnsibWVzc2FnZSI6IkJBaHBBYUk9IiwiZXhwIjpudWxsLCJwdXIiOiJibG9iX2lkIn19--1e70618523bcfc86b014f8c7fb538934e8341875/eyJfcmFpbHMiOnsibWVzc2FnZSI6IkJBaDdCem9MWm05eWJXRjBTU0lJYW5CbkJqb0dSVlE2RkhKbGMybDZaVjkwYjE5c2FXMXBkRnNIYVFISWFRSEkiLCJleHAiOm51bGwsInB1ciI6InZhcmlhdGlvbiJ9fQ==--1dcfe0ca78f93bb1bbf5c7c232fea5dee45dfaad/logo%20horiz%202%20-%20Leo%20M.jpg",
      "programWebsiteUrl": "https://www.nlc.bc.ca/Programs/All-Programs-Alphabetical/Power-Engineering-and-Gas-Processing"
    },
    {
      "id": "273",
      "slug": "273-electrician-apprenticeship",
      "title": "Electrician Apprenticeship",
      "host": "Northern Lights College",
      "description": "This program prepares students for entrance into the field of Electrician by providing them with the basic knowledge, skills and technical training that employers are seeking in new hires.",
      "province": "British Columbia",
      "location": "Fort St John, BC",
      "tags": ["Energy Storage", "Energy Efficiency"],
      "eligibility": [
        "As required by British Columbia's Industry Training Authority (ITA). "
      ],
      "relatedCareers": [],
      "programFormat": "In Person Classes",
      "certType": "Journeyperson",
      "programLength": "40 weeks",
      "programCost": "$11,700.00 CAD",
      "courseLoad": "Full Time",
      "language": "English",
      "isBookmarked": false,
      "hostLogo": "/rails/active_storage/representations/redirect/eyJfcmFpbHMiOnsibWVzc2FnZSI6IkJBaHBBYUk9IiwiZXhwIjpudWxsLCJwdXIiOiJibG9iX2lkIn19--1e70618523bcfc86b014f8c7fb538934e8341875/eyJfcmFpbHMiOnsibWVzc2FnZSI6IkJBaDdCem9MWm05eWJXRjBTU0lJYW5CbkJqb0dSVlE2RkhKbGMybDZaVjkwYjE5c2FXMXBkRnNIYVFISWFRSEkiLCJleHAiOm51bGwsInB1ciI6InZhcmlhdGlvbiJ9fQ==--1dcfe0ca78f93bb1bbf5c7c232fea5dee45dfaad/logo%20horiz%202%20-%20Leo%20M.jpg",
      "programWebsiteUrl": "https://www.nlc.bc.ca/Programs/All-Programs-Alphabetical/Electrician-Apprenticeship"
    },
    {
      "id": "274",
      "slug": "274-advanced-certificate-in-wind-turbine-maintenance",
      "title": "Advanced Certificate in Wind Turbine Maintenance",
      "host": "Northern Lights College",
      "description": "Upon completion of the program (training and practicums), students are prepared to enter the field as wind turbine technicians and can progress to higher levels of certification within the industry.",
      "province": "British Columbia",
      "location": "Fort St John, BC",
      "tags": ["Wind"],
      "eligibility": [
        "Some highschool education or Advanced-Level Essential Skills for Trades or proof of Canadian Adult Achievement Test needed.",
        "Visit program website for detailed pre-requisites."
      ],
      "relatedCareers": [],
      "programFormat": "In Person Classes",
      "certType": "College Certificate",
      "programLength": "51 weeks",
      "programCost": "$6,071.75 CAD",
      "courseLoad": "Full Time",
      "language": "English",
      "isBookmarked": false,
      "hostLogo": "/rails/active_storage/representations/redirect/eyJfcmFpbHMiOnsibWVzc2FnZSI6IkJBaHBBYUk9IiwiZXhwIjpudWxsLCJwdXIiOiJibG9iX2lkIn19--1e70618523bcfc86b014f8c7fb538934e8341875/eyJfcmFpbHMiOnsibWVzc2FnZSI6IkJBaDdCem9MWm05eWJXRjBTU0lJYW5CbkJqb0dSVlE2RkhKbGMybDZaVjkwYjE5c2FXMXBkRnNIYVFISWFRSEkiLCJleHAiOm51bGwsInB1ciI6InZhcmlhdGlvbiJ9fQ==--1dcfe0ca78f93bb1bbf5c7c232fea5dee45dfaad/logo%20horiz%202%20-%20Leo%20M.jpg",
      "programWebsiteUrl": "https://www.nlc.bc.ca/Programs/All-Programs-Alphabetical/Wind-Turbine-Maintenance-Technician"
    },
    {
      "id": "276",
      "slug": "276-energy-advisor-training-and-certification",
      "title": "Energy Advisor Training and Certification",
      "host": "The Home Inspectors Group Inc.",
      "description": "To become a Registered Energy Advisor you will need to pass 2 Exams (Foundation and Energy Advisor Exams).",
      "province": "Ontario",
      "location": "Markham, ON",
      "tags": ["Energy Efficiency"],
      "eligibility": [
        "Have previous knowledge in construction practices and energy efficiency renovations."
      ],
      "relatedCareers": [],
      "programFormat": "In Person Classes, Online",
      "certType": "Course / Workshop",
      "programLength": "4 weeks",
      "programCost": "Unknown",
      "courseLoad": "Full Time and Part Time",
      "language": "English",
      "isBookmarked": false,
      "hostLogo": "/rails/active_storage/representations/redirect/eyJfcmFpbHMiOnsibWVzc2FnZSI6IkJBaHBBYVE9IiwiZXhwIjpudWxsLCJwdXIiOiJibG9iX2lkIn19--57eabb21e606ecf61f0def54ed37d504ab2a9877/eyJfcmFpbHMiOnsibWVzc2FnZSI6IkJBaDdCem9MWm05eWJXRjBTU0lJY0c1bkJqb0dSVlE2RkhKbGMybDZaVjkwYjE5c2FXMXBkRnNIYVFISWFRSEkiLCJleHAiOm51bGwsInB1ciI6InZhcmlhdGlvbiJ9fQ==--7f71ef0f223149a0637966faf932effcf328e851/logo%20-%20Sally%20Lin.png",
      "programWebsiteUrl": "https://thehomeinspectorsgroup.com/energy-training-and-certification/"
    },
    {
      "id": "277",
      "slug": "277-power-system-electrician-apprenticeship",
      "title": "Power System Electrician Apprenticeship",
      "host": "Northern Alberta Institute of Technology",
      "description": "If you like to have variety in your day-to-day work and are a creative problem-solver, then you will enjoy working as a power systems electrician.",
      "province": "Alberta",
      "location": "Edmonton, AB",
      "tags": ["Solar", "Wind"],
      "eligibility": [
        "Minimum Alberta or equivalent High School requirements for this trade."
      ],
      "relatedCareers": [],
      "programFormat": "In Person Classes",
      "certType": "Journeyperson",
      "programLength": "30 weeks",
      "programCost": "$3,370.00 CAD",
      "courseLoad": "Full Time",
      "language": "English",
      "isBookmarked": false,
      "hostLogo": "/rails/active_storage/representations/redirect/eyJfcmFpbHMiOnsibWVzc2FnZSI6IkJBaHBBYVU9IiwiZXhwIjpudWxsLCJwdXIiOiJibG9iX2lkIn19--49209da7e6d758929d3e2c61b835f38c4e870353/eyJfcmFpbHMiOnsibWVzc2FnZSI6IkJBaDdCem9MWm05eWJXRjBTU0lJYW5CbkJqb0dSVlE2RkhKbGMybDZaVjkwYjE5c2FXMXBkRnNIYVFISWFRSEkiLCJleHAiOm51bGwsInB1ciI6InZhcmlhdGlvbiJ9fQ==--1dcfe0ca78f93bb1bbf5c7c232fea5dee45dfaad/nait-logo-inverted-web.jpg",
      "programWebsiteUrl": "https://www.nait.ca/programs/power-system-electrician"
    },
    {
      "id": "278",
      "slug": "278-alternative-energy-technology",
      "title": "Alternative Energy Technology",
      "host": "Northern Alberta Institute of Technology",
      "description": "Theoretical and practical skills needed to design, integrate and maintain systems that utilize major alternative energy sources such as solar, geothermal, wind, biofuels, hydro, fuel cell and co-generation.",
      "province": "Alberta",
      "location": "Edmonton, AB",
      "tags": ["Geothermal", "Energy Storage", "Solar", "Wind"],
      "eligibility": [
        "Successful completion of minimum 24 post-secondary credits or 8 post-secondary courses within an accredited or recognized degree or diploma in a related field (engineering or engineering technology) with an Admission GPA of 2.0 based on the most recently completed post-secondary credits.",
        "Proof of English Language Proficiency."
      ],
      "relatedCareers": [],
      "programFormat": "In Person Classes, Online",
      "certType": "College Diploma, College Certificate",
      "programLength": "2 years",
      "programCost": "$2,700.00 CAD",
      "courseLoad": "Full Time",
      "language": "English",
      "isBookmarked": false,
      "hostLogo": "/rails/active_storage/representations/redirect/eyJfcmFpbHMiOnsibWVzc2FnZSI6IkJBaHBBYVU9IiwiZXhwIjpudWxsLCJwdXIiOiJibG9iX2lkIn19--49209da7e6d758929d3e2c61b835f38c4e870353/eyJfcmFpbHMiOnsibWVzc2FnZSI6IkJBaDdCem9MWm05eWJXRjBTU0lJYW5CbkJqb0dSVlE2RkhKbGMybDZaVjkwYjE5c2FXMXBkRnNIYVFISWFRSEkiLCJleHAiOm51bGwsInB1ciI6InZhcmlhdGlvbiJ9fQ==--1dcfe0ca78f93bb1bbf5c7c232fea5dee45dfaad/nait-logo-inverted-web.jpg",
      "programWebsiteUrl": "https://www.nait.ca/programs/alternative-energy-technology"
    },
    {
      "id": "279",
      "slug": "279-geosmart-energy-academy",
      "title": "GeoSmart Energy Academy",
      "host": "GeoSmart Energy",
      "description": "The GeoSmart Energy Academy is a training program that offers practical, hands-on geothermal energy workshops delivered by some of Canada’s most experienced geothermal energy instructors.",
      "province": "Ontario",
      "location": "Cambridge, ON",
      "tags": ["Geothermal"],
      "eligibility": ["None"],
      "relatedCareers": [],
      "programFormat": "Various",
      "certType": "Course / Workshop",
      "programLength": "1 day",
      "programCost": "Unknown",
      "courseLoad": "Part Time",
      "language": "English",
      "isBookmarked": false,
      "hostLogo": "/rails/active_storage/representations/redirect/eyJfcmFpbHMiOnsibWVzc2FnZSI6IkJBaHBBYVk9IiwiZXhwIjpudWxsLCJwdXIiOiJibG9iX2lkIn19--6e3f135d8d323d8f60d0a8b1b761fe6057200c3d/eyJfcmFpbHMiOnsibWVzc2FnZSI6IkJBaDdCem9MWm05eWJXRjBTU0lJY0c1bkJqb0dSVlE2RkhKbGMybDZaVjkwYjE5c2FXMXBkRnNIYVFISWFRSEkiLCJleHAiOm51bGwsInB1ciI6InZhcmlhdGlvbiJ9fQ==--7f71ef0f223149a0637966faf932effcf328e851/FinalLogo500.png",
      "programWebsiteUrl": "https://www.geosmartenergy.com/learn/training/"
    },
    {
      "id": "268",
      "slug": "268-electricity-fundamentals-and-restructuring",
      "title": "Electricity Fundamentals and Restructuring",
      "host": "Oak Leaf",
      "description": "Learn about the latest electricity technologies, including renewables and smart grids, and electricity industry restructuring and jurisdiciton changes in Canada.",
      "province": "Alberta",
      "location": "Calgary, AB",
      "tags": ["Energy Storage", "Energy Efficiency"],
      "eligibility": ["None"],
      "relatedCareers": [],
      "programFormat": "In Person Classes, Online",
      "certType": "Course / Workshop",
      "programLength": "2 days",
      "programCost": "$1,395.00 CAD",
      "courseLoad": "Part Time",
      "language": "English",
      "isBookmarked": false,
      "hostLogo": "/rails/active_storage/representations/redirect/eyJfcmFpbHMiOnsibWVzc2FnZSI6IkJBaHBBYUE9IiwiZXhwIjpudWxsLCJwdXIiOiJibG9iX2lkIn19--93118c83a4e572dcb93f4e06f9bb2affac127057/eyJfcmFpbHMiOnsibWVzc2FnZSI6IkJBaDdCem9MWm05eWJXRjBTU0lJWjJsbUJqb0dSVlE2RkhKbGMybDZaVjkwYjE5c2FXMXBkRnNIYVFISWFRSEkiLCJleHAiOm51bGwsInB1ciI6InZhcmlhdGlvbiJ9fQ==--b627c17dd7daaf5c6907d6395b4d5359e77f3ad3/OAK-logo-blue-green%20-%20J%20R.gif",
      "programWebsiteUrl": "https://www.oakleaftraining.com/courses/electricity-fundamentals-restructuring/"
    },
    {
      "id": "280",
      "slug": "280-solar-pv-design-installation-training",
      "title": "Solar PV Design \u0026 Installation Training",
      "host": "Stardust Solar",
      "description": "A layered curriculum that covers theory, system design, and a full-day of hands-on installtion practice.",
      "province": "British Columbia",
      "location": "Burnaby, BC",
      "tags": ["Solar"],
      "eligibility": ["None"],
      "relatedCareers": [],
      "programFormat": "In Person Classes, Off-site",
      "certType": "Course / Workshop",
      "programLength": "5 days",
      "programCost": "$1,499.95 CAD",
      "courseLoad": "Part Time",
      "language": "English, French",
      "isBookmarked": false,
      "hostLogo": "/rails/active_storage/representations/redirect/eyJfcmFpbHMiOnsibWVzc2FnZSI6IkJBaHBBYWM9IiwiZXhwIjpudWxsLCJwdXIiOiJibG9iX2lkIn19--4d773a03ade08a320d3efe82c4cd66e16960c225/eyJfcmFpbHMiOnsibWVzc2FnZSI6IkJBaDdCem9MWm05eWJXRjBTU0lJYW5CbkJqb0dSVlE2RkhKbGMybDZaVjkwYjE5c2FXMXBkRnNIYVFISWFRSEkiLCJleHAiOm51bGwsInB1ciI6InZhcmlhdGlvbiJ9fQ==--1dcfe0ca78f93bb1bbf5c7c232fea5dee45dfaad/Stardust%20Solar%20Logo%20(Blue-Yellow)-1.jpg",
      "programWebsiteUrl": "https://stardustsolar.com/in-person-training/#in-person-training"
    },
    {
      "id": "281",
      "slug": "281-solar-pv-design-installation-training",
      "title": "Solar PV Design \u0026 Installation Training",
      "host": "Stardust Solar",
      "description": "A layered curriculum that covers theory, system design, and a full-day of hands-on installtion practice.",
      "province": "Alberta",
      "location": "Calgary, AB",
      "tags": ["Solar"],
      "eligibility": [],
      "relatedCareers": [],
      "programFormat": "In Person Classes, Off-site",
      "certType": "Course / Workshop",
      "programLength": "5 days",
      "programCost": "$1,499.95 CAD",
      "courseLoad": "Part Time",
      "language": "English, French",
      "isBookmarked": false,
      "hostLogo": "/rails/active_storage/representations/redirect/eyJfcmFpbHMiOnsibWVzc2FnZSI6IkJBaHBBYWM9IiwiZXhwIjpudWxsLCJwdXIiOiJibG9iX2lkIn19--4d773a03ade08a320d3efe82c4cd66e16960c225/eyJfcmFpbHMiOnsibWVzc2FnZSI6IkJBaDdCem9MWm05eWJXRjBTU0lJYW5CbkJqb0dSVlE2RkhKbGMybDZaVjkwYjE5c2FXMXBkRnNIYVFISWFRSEkiLCJleHAiOm51bGwsInB1ciI6InZhcmlhdGlvbiJ9fQ==--1dcfe0ca78f93bb1bbf5c7c232fea5dee45dfaad/Stardust%20Solar%20Logo%20(Blue-Yellow)-1.jpg",
      "programWebsiteUrl": "https://stardustsolar.com/in-person-training/#in-person-training"
    },
    {
      "id": "282",
      "slug": "282-solar-pv-design-installation-training",
      "title": "Solar PV Design \u0026 Installation Training",
      "host": "Stardust Solar",
      "description": "A layered curriculum that covers theory, system design, and a full-day of hands-on installtion practice.",
      "province": "Québec",
      "location": "Montreal, QC",
      "tags": ["Solar"],
      "eligibility": [],
      "relatedCareers": [],
      "programFormat": "In Person Classes, Off-site",
      "certType": "Course / Workshop",
      "programLength": "5 days",
      "programCost": "$1,499.95 CAD",
      "courseLoad": "Part Time",
      "language": "English, French",
      "isBookmarked": false,
      "hostLogo": "/rails/active_storage/representations/redirect/eyJfcmFpbHMiOnsibWVzc2FnZSI6IkJBaHBBYWM9IiwiZXhwIjpudWxsLCJwdXIiOiJibG9iX2lkIn19--4d773a03ade08a320d3efe82c4cd66e16960c225/eyJfcmFpbHMiOnsibWVzc2FnZSI6IkJBaDdCem9MWm05eWJXRjBTU0lJYW5CbkJqb0dSVlE2RkhKbGMybDZaVjkwYjE5c2FXMXBkRnNIYVFISWFRSEkiLCJleHAiOm51bGwsInB1ciI6InZhcmlhdGlvbiJ9fQ==--1dcfe0ca78f93bb1bbf5c7c232fea5dee45dfaad/Stardust%20Solar%20Logo%20(Blue-Yellow)-1.jpg",
      "programWebsiteUrl": "https://stardustsolar.com/in-person-training/#in-person-training"
    },
    {
      "id": "283",
      "slug": "283-solar-pv-design-installation-training",
      "title": "Solar PV Design \u0026 Installation Training",
      "host": "Stardust Solar",
      "description": "A layered curriculum that covers theory, system design, and a full-day of hands-on installtion practice.",
      "province": "Ontario",
      "location": "Mississauga, ON",
      "tags": ["Solar"],
      "eligibility": [],
      "relatedCareers": [],
      "programFormat": "In Person Classes, Off-site",
      "certType": "Course / Workshop",
      "programLength": "5 days",
      "programCost": "$1,499.95 CAD",
      "courseLoad": "Part Time",
      "language": "English, French",
      "isBookmarked": false,
      "hostLogo": "/rails/active_storage/representations/redirect/eyJfcmFpbHMiOnsibWVzc2FnZSI6IkJBaHBBYWM9IiwiZXhwIjpudWxsLCJwdXIiOiJibG9iX2lkIn19--4d773a03ade08a320d3efe82c4cd66e16960c225/eyJfcmFpbHMiOnsibWVzc2FnZSI6IkJBaDdCem9MWm05eWJXRjBTU0lJYW5CbkJqb0dSVlE2RkhKbGMybDZaVjkwYjE5c2FXMXBkRnNIYVFISWFRSEkiLCJleHAiOm51bGwsInB1ciI6InZhcmlhdGlvbiJ9fQ==--1dcfe0ca78f93bb1bbf5c7c232fea5dee45dfaad/Stardust%20Solar%20Logo%20(Blue-Yellow)-1.jpg",
      "programWebsiteUrl": "https://stardustsolar.com/in-person-training/#in-person-training"
    },
    {
      "id": "284",
      "slug": "284-solar-pv-design-installation-training",
      "title": "Solar PV Design \u0026 Installation Training",
      "host": "Stardust Solar",
      "description": "A layered curriculum that covers theory, system design, and a full-day of hands-on installtion practice.",
      "province": "Nova Scotia",
      "location": "Digby, NS",
      "tags": ["Solar"],
      "eligibility": [],
      "relatedCareers": [],
      "programFormat": "In Person Classes, Off-site",
      "certType": "Course / Workshop",
      "programLength": "5 days",
      "programCost": "$1,499.95 CAD",
      "courseLoad": "Part Time",
      "language": "English, French",
      "isBookmarked": false,
      "hostLogo": "/rails/active_storage/representations/redirect/eyJfcmFpbHMiOnsibWVzc2FnZSI6IkJBaHBBYWM9IiwiZXhwIjpudWxsLCJwdXIiOiJibG9iX2lkIn19--4d773a03ade08a320d3efe82c4cd66e16960c225/eyJfcmFpbHMiOnsibWVzc2FnZSI6IkJBaDdCem9MWm05eWJXRjBTU0lJYW5CbkJqb0dSVlE2RkhKbGMybDZaVjkwYjE5c2FXMXBkRnNIYVFISWFRSEkiLCJleHAiOm51bGwsInB1ciI6InZhcmlhdGlvbiJ9fQ==--1dcfe0ca78f93bb1bbf5c7c232fea5dee45dfaad/Stardust%20Solar%20Logo%20(Blue-Yellow)-1.jpg",
      "programWebsiteUrl": "https://stardustsolar.com/in-person-training/#in-person-training"
    }
  ],
  "page": 1,
  "perPage": 20,
  "totalPages": 2,
  "totalItems": 38
}
